%YAML 1.1
%TAG !u! tag:unity3d.com,2011:
--- !u!114 &11400000
MonoBehaviour:
  m_ObjectHideFlags: 0
  m_CorrespondingSourceObject: {fileID: 0}
  m_PrefabInstance: {fileID: 0}
  m_PrefabAsset: {fileID: 0}
  m_GameObject: {fileID: 0}
  m_Enabled: 1
  m_EditorHideFlags: 0
  m_Script: {fileID: 11500000, guid: b8b4e81419856bb458fcae7feb1b1181, type: 3}
  m_Name: Diamond
  m_EditorClassIdentifier: 
  type: 3
  color: {r: 0.24442266, g: 0.68761164, b: 0.7264151, a: 1}
  worth: 5000
